module mailgun_events_exporter

go 1.21

require (
	github.com/alecthomas/kingpin/v2 v2.4.0
	github.com/go-kit/log v0.2.1
	github.com/mailgun/mailgun-go/v4 v4.8.1
	github.com/prometheus/client_golang v1.18.0
	github.com/prometheus/common v0.46.0
	github.com/sirupsen/logrus v1.9.0
	github.com/stretchr/testify v1.8.4
	github.com/zekroTJA/timedmap v1.5.2
)

require (
	github.com/alecthomas/units v0.0.0-20231202071711-9a357b53e9c9 // indirect
	github.com/beorn7/perks v1.0.1 // indirect
	github.com/cespare/xxhash/v2 v2.2.0 // indirect
	github.com/davecgh/go-spew v1.1.1 // indirect
	github.com/go-logfmt/logfmt v0.5.1 // indirect
	github.com/gorilla/mux v1.8.0 // indirect
	github.com/json-iterator/go v1.1.12 // indirect
	github.com/kr/text v0.2.0 // indirect
	github.com/modern-go/concurrent v0.0.0-20180306012644-bacd9c7ef1dd // indirect
	github.com/modern-go/reflect2 v1.0.2 // indirect
	github.com/pkg/errors v0.9.1 // indirect
	github.com/pmezard/go-difflib v1.0.0 // indirect
	github.com/prometheus/client_model v0.5.0 // indirect
	github.com/prometheus/procfs v0.12.0 // indirect
	github.com/stretchr/objx v0.5.1 // indirect
	github.com/xhit/go-str2duration/v2 v2.1.0 // indirect
	golang.org/x/sys v0.16.0 // indirect
	google.golang.org/protobuf v1.32.0 // indirect
	gopkg.in/yaml.v3 v3.0.1 // indirect
)
